   family:     Liberation Mono
   family:     Liberation Mono
   family:     Liberation Mono
   family:     Liberation Mono
   family:     Liberation Sans
   family:     Liberation Sans
   family:     Liberation Sans
   family:     Liberation Sans
   family:     Liberation Serif
   family:     Liberation Serif
   family:     Liberation Serif
   family:     Liberation Serif
