Cipher disabled, skipping CAMELLIA-128-ECB
Cipher disabled, skipping CAMELLIA-192-ECB
Cipher disabled, skipping CAMELLIA-256-ECB
Cipher disabled, skipping CAMELLIA-128-ECB
Cipher disabled, skipping CAMELLIA-192-ECB
Cipher disabled, skipping CAMELLIA-256-ECB
Cipher disabled, skipping CAMELLIA-128-ECB
Cipher disabled, skipping CAMELLIA-128-ECB
Cipher disabled, skipping CAMELLIA-128-ECB
Cipher disabled, skipping CAMELLIA-128-ECB
Cipher disabled, skipping CAMELLIA-192-ECB
Cipher disabled, skipping CAMELLIA-192-ECB
Cipher disabled, skipping CAMELLIA-192-ECB
Cipher disabled, skipping CAMELLIA-192-ECB
Cipher disabled, skipping CAMELLIA-256-ECB
Cipher disabled, skipping CAMELLIA-256-ECB
Cipher disabled, skipping CAMELLIA-256-ECB
Cipher disabled, skipping CAMELLIA-256-ECB
Cipher disabled, skipping CAMELLIA-128-CBC
Cipher disabled, skipping CAMELLIA-128-CBC
Cipher disabled, skipping CAMELLIA-128-CBC
Cipher disabled, skipping CAMELLIA-128-CBC
Cipher disabled, skipping CAMELLIA-192-CBC
Cipher disabled, skipping CAMELLIA-192-CBC
Cipher disabled, skipping CAMELLIA-192-CBC
Cipher disabled, skipping CAMELLIA-192-CBC
Cipher disabled, skipping CAMELLIA-256-CBC
Cipher disabled, skipping CAMELLIA-256-CBC
Cipher disabled, skipping CAMELLIA-256-CBC
Cipher disabled, skipping CAMELLIA-256-CBC
Cipher disabled, skipping CAMELLIA-128-CFB
Cipher disabled, skipping CAMELLIA-128-CFB
Cipher disabled, skipping CAMELLIA-128-CFB
Cipher disabled, skipping CAMELLIA-128-CFB
Cipher disabled, skipping CAMELLIA-128-CFB
Cipher disabled, skipping CAMELLIA-128-CFB
Cipher disabled, skipping CAMELLIA-128-CFB
Cipher disabled, skipping CAMELLIA-128-CFB
Cipher disabled, skipping CAMELLIA-192-CFB
Cipher disabled, skipping CAMELLIA-192-CFB
Cipher disabled, skipping CAMELLIA-192-CFB
Cipher disabled, skipping CAMELLIA-192-CFB
Cipher disabled, skipping CAMELLIA-192-CFB
Cipher disabled, skipping CAMELLIA-192-CFB
Cipher disabled, skipping CAMELLIA-192-CFB
Cipher disabled, skipping CAMELLIA-192-CFB
Cipher disabled, skipping CAMELLIA-256-CFB
Cipher disabled, skipping CAMELLIA-256-CFB
Cipher disabled, skipping CAMELLIA-256-CFB
Cipher disabled, skipping CAMELLIA-256-CFB
Cipher disabled, skipping CAMELLIA-256-CFB
Cipher disabled, skipping CAMELLIA-256-CFB
Cipher disabled, skipping CAMELLIA-256-CFB
Cipher disabled, skipping CAMELLIA-256-CFB
Cipher disabled, skipping CAMELLIA-128-OFB
Cipher disabled, skipping CAMELLIA-128-OFB
Cipher disabled, skipping CAMELLIA-128-OFB
Cipher disabled, skipping CAMELLIA-128-OFB
Cipher disabled, skipping CAMELLIA-128-OFB
Cipher disabled, skipping CAMELLIA-128-OFB
Cipher disabled, skipping CAMELLIA-128-OFB
Cipher disabled, skipping CAMELLIA-128-OFB
Cipher disabled, skipping CAMELLIA-192-OFB
Cipher disabled, skipping CAMELLIA-192-OFB
Cipher disabled, skipping CAMELLIA-192-OFB
Cipher disabled, skipping CAMELLIA-192-OFB
Cipher disabled, skipping CAMELLIA-192-OFB
Cipher disabled, skipping CAMELLIA-192-OFB
Cipher disabled, skipping CAMELLIA-192-OFB
Cipher disabled, skipping CAMELLIA-192-OFB
Cipher disabled, skipping CAMELLIA-256-OFB
Cipher disabled, skipping CAMELLIA-256-OFB
Cipher disabled, skipping CAMELLIA-256-OFB
Cipher disabled, skipping CAMELLIA-256-OFB
Cipher disabled, skipping CAMELLIA-256-OFB
Cipher disabled, skipping CAMELLIA-256-OFB
Cipher disabled, skipping CAMELLIA-256-OFB
Cipher disabled, skipping CAMELLIA-256-OFB
Cipher disabled, skipping SEED-ECB
Cipher disabled, skipping SEED-ECB
Cipher disabled, skipping SEED-ECB
Cipher disabled, skipping SEED-ECB
Cipher disabled, skipping SEED-ECB
Cipher disabled, skipping SEED-ECB
Cipher disabled, skipping SEED-ECB
Cipher disabled, skipping SEED-ECB
